// Jest Snapshot v1, https://goo.gl/fbAQLP

exports[`should render data 1`] = `
<div>
  {
 "rows": [
  {
   "employee": {
    "last_name": "Black",
    "first_name": "Sarah",
    "id": 2640
   },
   "role": {
    "background_colour": "#f5ffa2",
    "name": "Checkouts",
    "id": 1,
    "text_colour": "#000000"
   },
   "startTime": "2018-06-23T21:00:00.000Z",
   "endTime": "2018-06-24T05:30:00.000Z",
   "id": 61549,
   "break_duration": 3600
  },
  {
   "employee": {
    "last_name": "Magenta",
    "first_name": "John",
    "id": 2645
   },
   "role": {
    "background_colour": "#bf8ef1",
    "name": "Stacker",
    "id": 3,
    "text_colour": "#000000"
   },
   "startTime": "2018-06-23T21:00:00.000Z",
   "endTime": "2018-06-24T05:30:00.000Z",
   "id": 61550,
   "break_duration": 3600
  },
  {
   "employee": {
    "last_name": "Cyan",
    "first_name": "Rachel",
    "id": 2644
   },
   "role": {
    "background_colour": "#f38f60",
    "name": "Supervisor",
    "id": 2,
    "text_colour": "#000000"
   },
   "startTime": "2018-06-23T05:00:00.000Z",
   "endTime": "2018-06-23T13:30:00.000Z",
   "id": 61551,
   "break_duration": 3600
  },
  {
   "employee": {
    "last_name": "Grey",
    "first_name": "Emily",
    "id": 2647
   },
   "role": {
    "background_colour": "#bf8ef1",
    "name": "Stacker",
    "id": 3,
    "text_colour": "#000000"
   },
   "startTime": "2018-06-23T05:00:00.000Z",
   "endTime": "2018-06-23T13:30:00.000Z",
   "id": 61552,
   "break_duration": 3600
  },
  {
   "employee": {
    "last_name": "Teal",
    "first_name": "Ashley",
    "id": 2646
   },
   "role": {
    "background_colour": "#f5ffa2",
    "name": "Checkouts",
    "id": 1,
    "text_colour": "#000000"
   },
   "startTime": "2018-06-23T05:00:00.000Z",
   "endTime": "2018-06-23T13:30:00.000Z",
   "id": 61553,
   "break_duration": 3600
  },
  {
   "employee": {
    "last_name": "Yellow",
    "first_name": "Tom",
    "id": 2637
   },
   "role": {
    "background_colour": "#bf8ef1",
    "name": "Stacker",
    "id": 3,
    "text_colour": "#000000"
   },
   "startTime": "2018-06-23T13:00:00.000Z",
   "endTime": "2018-06-23T21:30:00.000Z",
   "id": 61554,
   "break_duration": 3600
  },
  {
   "employee": {
    "last_name": "Green",
    "first_name": "Steven",
    "id": 2642
   },
   "role": {
    "background_colour": "#f5ffa2",
    "name": "Checkouts",
    "id": 1,
    "text_colour": "#000000"
   },
   "startTime": "2018-06-23T13:00:00.000Z",
   "endTime": "2018-06-23T21:30:00.000Z",
   "id": 61555,
   "break_duration": 3600
  },
  {
   "employee": {
    "last_name": "White",
    "first_name": "Frank",
    "id": 2634
   },
   "role": {
    "background_colour": "#f38f60",
    "name": "Supervisor",
    "id": 2,
    "text_colour": "#000000"
   },
   "startTime": "2018-06-23T13:00:00.000Z",
   "endTime": "2018-06-23T21:30:00.000Z",
   "id": 61556,
   "break_duration": 3600
  },
  {
   "employee": {
    "last_name": "Purple",
    "first_name": "Dylan",
    "id": 2636
   },
   "role": {
    "background_colour": "#bf8ef1",
    "name": "Stacker",
    "id": 3,
    "text_colour": "#000000"
   },
   "startTime": "2018-06-21T21:00:00.000Z",
   "endTime": "2018-06-22T05:30:00.000Z",
   "id": 61557,
   "break_duration": 3600
  },
  {
   "employee": {
    "last_name": "Blue",
    "first_name": "Andrew",
    "id": 2639
   },
   "role": {
    "background_colour": "#f5ffa2",
    "name": "Checkouts",
    "id": 1,
    "text_colour": "#000000"
   },
   "startTime": "2018-06-21T21:00:00.000Z",
   "endTime": "2018-06-22T05:30:00.000Z",
   "id": 61558,
   "break_duration": 3600
  },
  {
   "employee": {
    "last_name": "Brown",
    "first_name": "Sally",
    "id": 2635
   },
   "role": {
    "background_colour": "#f38f60",
    "name": "Supervisor",
    "id": 2,
    "text_colour": "#000000"
   },
   "startTime": "2018-06-21T05:00:00.000Z",
   "endTime": "2018-06-21T13:30:00.000Z",
   "id": 61559,
   "break_duration": 3600
  },
  {
   "employee": {
    "last_name": "Red",
    "first_name": "Paul",
    "id": 2641
   },
   "role": {
    "background_colour": "#bf8ef1",
    "name": "Stacker",
    "id": 3,
    "text_colour": "#000000"
   },
   "startTime": "2018-06-21T05:00:00.000Z",
   "endTime": "2018-06-21T13:30:00.000Z",
   "id": 61560,
   "break_duration": 3600
  },
  {
   "employee": {
    "last_name": "Teal",
    "first_name": "Ashley",
    "id": 2646
   },
   "role": {
    "background_colour": "#f5ffa2",
    "name": "Checkouts",
    "id": 1,
    "text_colour": "#000000"
   },
   "startTime": "2018-06-21T05:00:00.000Z",
   "endTime": "2018-06-21T13:30:00.000Z",
   "id": 61561,
   "break_duration": 3600
  },
  {
   "employee": {
    "last_name": "White",
    "first_name": "Frank",
    "id": 2634
   },
   "role": {
    "background_colour": "#f38f60",
    "name": "Supervisor",
    "id": 2,
    "text_colour": "#000000"
   },
   "startTime": "2018-06-21T13:00:00.000Z",
   "endTime": "2018-06-21T21:30:00.000Z",
   "id": 61562,
   "break_duration": 3600
  },
  {
   "employee": {
    "last_name": "Orange",
    "first_name": "David",
    "id": 2643
   },
   "role": {
    "background_colour": "#bf8ef1",
    "name": "Stacker",
    "id": 3,
    "text_colour": "#000000"
   },
   "startTime": "2018-06-21T13:00:00.000Z",
   "endTime": "2018-06-21T21:30:00.000Z",
   "id": 61563,
   "break_duration": 3600
  },
  {
   "employee": {
    "last_name": "Green",
    "first_name": "Steven",
    "id": 2642
   },
   "role": {
    "background_colour": "#f5ffa2",
    "name": "Checkouts",
    "id": 1,
    "text_colour": "#000000"
   },
   "startTime": "2018-06-21T13:00:00.000Z",
   "endTime": "2018-06-21T21:30:00.000Z",
   "id": 61564,
   "break_duration": 3600
  },
  {
   "employee": {
    "last_name": "Purple",
    "first_name": "Dylan",
    "id": 2636
   },
   "role": {
    "background_colour": "#f5ffa2",
    "name": "Checkouts",
    "id": 1,
    "text_colour": "#000000"
   },
   "startTime": "2018-06-18T21:00:00.000Z",
   "endTime": "2018-06-19T05:30:00.000Z",
   "id": 61565,
   "break_duration": 3600
  },
  {
   "employee": {
    "last_name": "Blue",
    "first_name": "Andrew",
    "id": 2639
   },
   "role": {
    "background_colour": "#bf8ef1",
    "name": "Stacker",
    "id": 3,
    "text_colour": "#000000"
   },
   "startTime": "2018-06-18T21:00:00.000Z",
   "endTime": "2018-06-19T05:30:00.000Z",
   "id": 61566,
   "break_duration": 3600
  },
  {
   "employee": {
    "last_name": "Black",
    "first_name": "Sarah",
    "id": 2640
   },
   "role": {
    "background_colour": "#bf8ef1",
    "name": "Stacker",
    "id": 3,
    "text_colour": "#000000"
   },
   "startTime": "2018-06-18T05:00:00.000Z",
   "endTime": "2018-06-18T13:30:00.000Z",
   "id": 61567,
   "break_duration": 3600
  },
  {
   "employee": {
    "last_name": "Orange",
    "first_name": "David",
    "id": 2643
   },
   "role": {
    "background_colour": "#f38f60",
    "name": "Supervisor",
    "id": 2,
    "text_colour": "#000000"
   },
   "startTime": "2018-06-18T05:00:00.000Z",
   "endTime": "2018-06-18T13:30:00.000Z",
   "id": 61568,
   "break_duration": 3600
  },
  {
   "employee": {
    "last_name": "Grey",
    "first_name": "Emily",
    "id": 2647
   },
   "role": {
    "background_colour": "#f5ffa2",
    "name": "Checkouts",
    "id": 1,
    "text_colour": "#000000"
   },
   "startTime": "2018-06-18T05:00:00.000Z",
   "endTime": "2018-06-18T13:30:00.000Z",
   "id": 61569,
   "break_duration": 3600
  },
  {
   "employee": {
    "last_name": "Cyan",
    "first_name": "Rachel",
    "id": 2644
   },
   "role": {
    "background_colour": "#f5ffa2",
    "name": "Checkouts",
    "id": 1,
    "text_colour": "#000000"
   },
   "startTime": "2018-06-18T13:00:00.000Z",
   "endTime": "2018-06-18T21:30:00.000Z",
   "id": 61570,
   "break_duration": 3600
  },
  {
   "employee": {
    "last_name": "Teal",
    "first_name": "Ashley",
    "id": 2646
   },
   "role": {
    "background_colour": "#f38f60",
    "name": "Supervisor",
    "id": 2,
    "text_colour": "#000000"
   },
   "startTime": "2018-06-18T13:00:00.000Z",
   "endTime": "2018-06-18T21:30:00.000Z",
   "id": 61571,
   "break_duration": 3600
  },
  {
   "employee": {
    "last_name": "Magenta",
    "first_name": "John",
    "id": 2645
   },
   "role": {
    "background_colour": "#bf8ef1",
    "name": "Stacker",
    "id": 3,
    "text_colour": "#000000"
   },
   "startTime": "2018-06-18T13:00:00.000Z",
   "endTime": "2018-06-18T21:30:00.000Z",
   "id": 61572,
   "break_duration": 3600
  },
  {
   "employee": {
    "last_name": "Blue",
    "first_name": "Andrew",
    "id": 2639
   },
   "role": {
    "background_colour": "#f5ffa2",
    "name": "Checkouts",
    "id": 1,
    "text_colour": "#000000"
   },
   "startTime": "2018-06-19T21:00:00.000Z",
   "endTime": "2018-06-20T05:30:00.000Z",
   "id": 61573,
   "break_duration": 3600
  },
  {
   "employee": {
    "last_name": "Purple",
    "first_name": "Dylan",
    "id": 2636
   },
   "role": {
    "background_colour": "#bf8ef1",
    "name": "Stacker",
    "id": 3,
    "text_colour": "#000000"
   },
   "startTime": "2018-06-19T21:00:00.000Z",
   "endTime": "2018-06-20T05:30:00.000Z",
   "id": 61574,
   "break_duration": 3600
  },
  {
   "employee": {
    "last_name": "Brown",
    "first_name": "Sally",
    "id": 2635
   },
   "role": {
    "background_colour": "#bf8ef1",
    "name": "Stacker",
    "id": 3,
    "text_colour": "#000000"
   },
   "startTime": "2018-06-19T05:00:00.000Z",
   "endTime": "2018-06-19T13:30:00.000Z",
   "id": 61575,
   "break_duration": 3600
  },
  {
   "employee": {
    "last_name": "Orange",
    "first_name": "David",
    "id": 2643
   },
   "role": {
    "background_colour": "#f38f60",
    "name": "Supervisor",
    "id": 2,
    "text_colour": "#000000"
   },
   "startTime": "2018-06-19T05:00:00.000Z",
   "endTime": "2018-06-19T13:30:00.000Z",
   "id": 61576,
   "break_duration": 3600
  },
  {
   "employee": {
    "last_name": "Grey",
    "first_name": "Emily",
    "id": 2647
   },
   "role": {
    "background_colour": "#f5ffa2",
    "name": "Checkouts",
    "id": 1,
    "text_colour": "#000000"
   },
   "startTime": "2018-06-19T05:00:00.000Z",
   "endTime": "2018-06-19T13:30:00.000Z",
   "id": 61577,
   "break_duration": 3600
  },
  {
   "employee": {
    "last_name": "Black",
    "first_name": "Sarah",
    "id": 2640
   },
   "role": {
    "background_colour": "#f5ffa2",
    "name": "Checkouts",
    "id": 1,
    "text_colour": "#000000"
   },
   "startTime": "2018-06-19T13:00:00.000Z",
   "endTime": "2018-06-19T21:30:00.000Z",
   "id": 61578,
   "break_duration": 3600
  },
  {
   "employee": {
    "last_name": "Cyan",
    "first_name": "Rachel",
    "id": 2644
   },
   "role": {
    "background_colour": "#bf8ef1",
    "name": "Stacker",
    "id": 3,
    "text_colour": "#000000"
   },
   "startTime": "2018-06-19T13:00:00.000Z",
   "endTime": "2018-06-19T21:30:00.000Z",
   "id": 61579,
   "break_duration": 3600
  },
  {
   "employee": {
    "last_name": "Magenta",
    "first_name": "John",
    "id": 2645
   },
   "role": {
    "background_colour": "#f38f60",
    "name": "Supervisor",
    "id": 2,
    "text_colour": "#000000"
   },
   "startTime": "2018-06-19T13:00:00.000Z",
   "endTime": "2018-06-19T21:30:00.000Z",
   "id": 61580,
   "break_duration": 3600
  },
  {
   "employee": {
    "last_name": "Black",
    "first_name": "Sarah",
    "id": 2640
   },
   "role": {
    "background_colour": "#f5ffa2",
    "name": "Checkouts",
    "id": 1,
    "text_colour": "#000000"
   },
   "startTime": "2018-06-24T21:00:00.000Z",
   "endTime": "2018-06-25T05:30:00.000Z",
   "id": 61581,
   "break_duration": 3600
  },
  {
   "employee": {
    "last_name": "Magenta",
    "first_name": "John",
    "id": 2645
   },
   "role": {
    "background_colour": "#bf8ef1",
    "name": "Stacker",
    "id": 3,
    "text_colour": "#000000"
   },
   "startTime": "2018-06-24T21:00:00.000Z",
   "endTime": "2018-06-25T05:30:00.000Z",
   "id": 61582,
   "break_duration": 3600
  },
  {
   "employee": {
    "last_name": "Red",
    "first_name": "Paul",
    "id": 2641
   },
   "role": {
    "background_colour": "#bf8ef1",
    "name": "Stacker",
    "id": 3,
    "text_colour": "#000000"
   },
   "startTime": "2018-06-24T05:00:00.000Z",
   "endTime": "2018-06-24T13:30:00.000Z",
   "id": 61583,
   "break_duration": 3600
  },
  {
   "employee": {
    "last_name": "Grey",
    "first_name": "Emily",
    "id": 2647
   },
   "role": {
    "background_colour": "#f38f60",
    "name": "Supervisor",
    "id": 2,
    "text_colour": "#000000"
   },
   "startTime": "2018-06-24T05:00:00.000Z",
   "endTime": "2018-06-24T13:30:00.000Z",
   "id": 61584,
   "break_duration": 3600
  },
  {
   "employee": {
    "last_name": "Cyan",
    "first_name": "Rachel",
    "id": 2644
   },
   "role": {
    "background_colour": "#f5ffa2",
    "name": "Checkouts",
    "id": 1,
    "text_colour": "#000000"
   },
   "startTime": "2018-06-24T05:00:00.000Z",
   "endTime": "2018-06-24T13:30:00.000Z",
   "id": 61585,
   "break_duration": 3600
  },
  {
   "employee": {
    "last_name": "White",
    "first_name": "Frank",
    "id": 2634
   },
   "role": {
    "background_colour": "#bf8ef1",
    "name": "Stacker",
    "id": 3,
    "text_colour": "#000000"
   },
   "startTime": "2018-06-24T13:00:00.000Z",
   "endTime": "2018-06-24T21:30:00.000Z",
   "id": 61586,
   "break_duration": 3600
  },
  {
   "employee": {
    "last_name": "Yellow",
    "first_name": "Tom",
    "id": 2637
   },
   "role": {
    "background_colour": "#f38f60",
    "name": "Supervisor",
    "id": 2,
    "text_colour": "#000000"
   },
   "startTime": "2018-06-24T13:00:00.000Z",
   "endTime": "2018-06-24T21:30:00.000Z",
   "id": 61587,
   "break_duration": 3600
  },
  {
   "employee": {
    "last_name": "Teal",
    "first_name": "Ashley",
    "id": 2646
   },
   "role": {
    "background_colour": "#f5ffa2",
    "name": "Checkouts",
    "id": 1,
    "text_colour": "#000000"
   },
   "startTime": "2018-06-24T13:00:00.000Z",
   "endTime": "2018-06-24T21:30:00.000Z",
   "id": 61588,
   "break_duration": 3600
  },
  {
   "employee": {
    "last_name": "Magenta",
    "first_name": "John",
    "id": 2645
   },
   "role": {
    "background_colour": "#f5ffa2",
    "name": "Checkouts",
    "id": 1,
    "text_colour": "#000000"
   },
   "startTime": "2018-06-22T21:00:00.000Z",
   "endTime": "2018-06-23T05:30:00.000Z",
   "id": 61589,
   "break_duration": 3600
  },
  {
   "employee": {
    "last_name": "Red",
    "first_name": "Paul",
    "id": 2641
   },
   "role": {
    "background_colour": "#bf8ef1",
    "name": "Stacker",
    "id": 3,
    "text_colour": "#000000"
   },
   "startTime": "2018-06-22T21:00:00.000Z",
   "endTime": "2018-06-23T05:30:00.000Z",
   "id": 61590,
   "break_duration": 3600
  },
  {
   "employee": {
    "last_name": "Brown",
    "first_name": "Sally",
    "id": 2635
   },
   "role": {
    "background_colour": "#bf8ef1",
    "name": "Stacker",
    "id": 3,
    "text_colour": "#000000"
   },
   "startTime": "2018-06-22T05:00:00.000Z",
   "endTime": "2018-06-22T13:30:00.000Z",
   "id": 61591,
   "break_duration": 3600
  },
  {
   "employee": {
    "last_name": "Teal",
    "first_name": "Ashley",
    "id": 2646
   },
   "role": {
    "background_colour": "#f5ffa2",
    "name": "Checkouts",
    "id": 1,
    "text_colour": "#000000"
   },
   "startTime": "2018-06-22T05:00:00.000Z",
   "endTime": "2018-06-22T13:30:00.000Z",
   "id": 61592,
   "break_duration": 3600
  },
  {
   "employee": {
    "last_name": "Yellow",
    "first_name": "Tom",
    "id": 2637
   },
   "role": {
    "background_colour": "#f38f60",
    "name": "Supervisor",
    "id": 2,
    "text_colour": "#000000"
   },
   "startTime": "2018-06-22T05:00:00.000Z",
   "endTime": "2018-06-22T13:30:00.000Z",
   "id": 61593,
   "break_duration": 3600
  },
  {
   "employee": {
    "last_name": "Green",
    "first_name": "Steven",
    "id": 2642
   },
   "role": {
    "background_colour": "#f5ffa2",
    "name": "Checkouts",
    "id": 1,
    "text_colour": "#000000"
   },
   "startTime": "2018-06-22T13:00:00.000Z",
   "endTime": "2018-06-22T21:30:00.000Z",
   "id": 61594,
   "break_duration": 3600
  },
  {
   "employee": {
    "last_name": "Orange",
    "first_name": "David",
    "id": 2643
   },
   "role": {
    "background_colour": "#bf8ef1",
    "name": "Stacker",
    "id": 3,
    "text_colour": "#000000"
   },
   "startTime": "2018-06-22T13:00:00.000Z",
   "endTime": "2018-06-22T21:30:00.000Z",
   "id": 61595,
   "break_duration": 3600
  },
  {
   "employee": {
    "last_name": "White",
    "first_name": "Frank",
    "id": 2634
   },
   "role": {
    "background_colour": "#f38f60",
    "name": "Supervisor",
    "id": 2,
    "text_colour": "#000000"
   },
   "startTime": "2018-06-22T13:00:00.000Z",
   "endTime": "2018-06-22T21:30:00.000Z",
   "id": 61596,
   "break_duration": 3600
  },
  {
   "employee": {
    "last_name": "Blue",
    "first_name": "Andrew",
    "id": 2639
   },
   "role": {
    "background_colour": "#bf8ef1",
    "name": "Stacker",
    "id": 3,
    "text_colour": "#000000"
   },
   "startTime": "2018-06-20T21:00:00.000Z",
   "endTime": "2018-06-21T05:30:00.000Z",
   "id": 61597,
   "break_duration": 3600
  },
  {
   "employee": {
    "last_name": "Purple",
    "first_name": "Dylan",
    "id": 2636
   },
   "role": {
    "background_colour": "#f5ffa2",
    "name": "Checkouts",
    "id": 1,
    "text_colour": "#000000"
   },
   "startTime": "2018-06-20T21:00:00.000Z",
   "endTime": "2018-06-21T05:30:00.000Z",
   "id": 61598,
   "break_duration": 3600
  },
  {
   "employee": {
    "last_name": "Black",
    "first_name": "Sarah",
    "id": 2640
   },
   "role": {
    "background_colour": "#bf8ef1",
    "name": "Stacker",
    "id": 3,
    "text_colour": "#000000"
   },
   "startTime": "2018-06-20T05:00:00.000Z",
   "endTime": "2018-06-20T13:30:00.000Z",
   "id": 61599,
   "break_duration": 3600
  },
  {
   "employee": {
    "last_name": "Green",
    "first_name": "Steven",
    "id": 2642
   },
   "role": {
    "background_colour": "#f5ffa2",
    "name": "Checkouts",
    "id": 1,
    "text_colour": "#000000"
   },
   "startTime": "2018-06-20T05:00:00.000Z",
   "endTime": "2018-06-20T13:30:00.000Z",
   "id": 61600,
   "break_duration": 3600
  },
  {
   "employee": {
    "last_name": "Grey",
    "first_name": "Emily",
    "id": 2647
   },
   "role": {
    "background_colour": "#f38f60",
    "name": "Supervisor",
    "id": 2,
    "text_colour": "#000000"
   },
   "startTime": "2018-06-20T05:00:00.000Z",
   "endTime": "2018-06-20T13:30:00.000Z",
   "id": 61601,
   "break_duration": 3600
  },
  {
   "employee": {
    "last_name": "Brown",
    "first_name": "Sally",
    "id": 2635
   },
   "role": {
    "background_colour": "#f5ffa2",
    "name": "Checkouts",
    "id": 1,
    "text_colour": "#000000"
   },
   "startTime": "2018-06-20T13:00:00.000Z",
   "endTime": "2018-06-20T21:30:00.000Z",
   "id": 61602,
   "break_duration": 3600
  },
  {
   "employee": {
    "last_name": "Orange",
    "first_name": "David",
    "id": 2643
   },
   "role": {
    "background_colour": "#bf8ef1",
    "name": "Stacker",
    "id": 3,
    "text_colour": "#000000"
   },
   "startTime": "2018-06-20T13:00:00.000Z",
   "endTime": "2018-06-20T21:30:00.000Z",
   "id": 61603,
   "break_duration": 3600
  },
  {
   "employee": {
    "last_name": "White",
    "first_name": "Frank",
    "id": 2634
   },
   "role": {
    "background_colour": "#f38f60",
    "name": "Supervisor",
    "id": 2,
    "text_colour": "#000000"
   },
   "startTime": "2018-06-20T13:00:00.000Z",
   "endTime": "2018-06-20T21:30:00.000Z",
   "id": 61604,
   "break_duration": 3600
  }
 ]
}
</div>
`;
