{
  "config": {
    "timezone": "Australia/Perth",
    "location": "Perth Shop"
  },
  "employee": {
    "2634": {
      "last_name": "White",
      "first_name": "Frank",
      "id": 2634
    },
    "2635": {
      "last_name": "Brown",
      "first_name": "Sally",
      "id": 2635
    },
    "2636": {
      "last_name": "Purple",
      "first_name": "Dylan",
      "id": 2636
    },
    "2637": {
      "last_name": "Yellow",
      "first_name": "Tom",
      "id": 2637
    },
    "2639": {
      "last_name": "Blue",
      "first_name": "Andrew",
      "id": 2639
    },
    "2640": {
      "last_name": "Black",
      "first_name": "Sarah",
      "id": 2640
    },
    "2641": {
      "last_name": "Red",
      "first_name": "Paul",
      "id": 2641
    },
    "2642": {
      "last_name": "Green",
      "first_name": "Steven",
      "id": 2642
    },
    "2643": {
      "last_name": "Orange",
      "first_name": "David",
      "id": 2643
    },
    "2644": {
      "last_name": "Cyan",
      "first_name": "Rachel",
      "id": 2644
    },
    "2645": {
      "last_name": "Magenta",
      "first_name": "John",
      "id": 2645
    },
    "2646": {
      "last_name": "Teal",
      "first_name": "Ashley",
      "id": 2646
    },
    "2647": {
      "last_name": "Grey",
      "first_name": "Emily",
      "id": 2647
    }
  },
  "role": {
    "1": {
      "background_colour": "#f5ffa2",
      "name": "Checkouts",
      "id": 1,
      "text_colour": "#000000"
    },
    "2": {
      "background_colour": "#f38f60",
      "name": "Supervisor",
      "id": 2,
      "text_colour": "#000000"
    },
    "3": {
      "background_colour": "#bf8ef1",
      "name": "Stacker",
      "id": 3,
      "text_colour": "#000000"
    }
  },
  "shift": {
    "61549": {
      "employee_id": 2640,
      "start_time": "2018-06-23T21:00:00+00:00",
      "role_id": 1,
      "end_time": "2018-06-24T05:30:00+00:00",
      "id": 61549,
      "break_duration": 3600
    },
    "61550": {
      "employee_id": 2645,
      "start_time": "2018-06-23T21:00:00+00:00",
      "role_id": 3,
      "end_time": "2018-06-24T05:30:00+00:00",
      "id": 61550,
      "break_duration": 3600
    },
    "61551": {
      "employee_id": 2644,
      "start_time": "2018-06-23T05:00:00+00:00",
      "role_id": 2,
      "end_time": "2018-06-23T13:30:00+00:00",
      "id": 61551,
      "break_duration": 3600
    },
    "61552": {
      "employee_id": 2647,
      "start_time": "2018-06-23T05:00:00+00:00",
      "role_id": 3,
      "end_time": "2018-06-23T13:30:00+00:00",
      "id": 61552,
      "break_duration": 3600
    },
    "61553": {
      "employee_id": 2646,
      "start_time": "2018-06-23T05:00:00+00:00",
      "role_id": 1,
      "end_time": "2018-06-23T13:30:00+00:00",
      "id": 61553,
      "break_duration": 3600
    },
    "61554": {
      "employee_id": 2637,
      "start_time": "2018-06-23T13:00:00+00:00",
      "role_id": 3,
      "end_time": "2018-06-23T21:30:00+00:00",
      "id": 61554,
      "break_duration": 3600
    },
    "61555": {
      "employee_id": 2642,
      "start_time": "2018-06-23T13:00:00+00:00",
      "role_id": 1,
      "end_time": "2018-06-23T21:30:00+00:00",
      "id": 61555,
      "break_duration": 3600
    },
    "61556": {
      "employee_id": 2634,
      "start_time": "2018-06-23T13:00:00+00:00",
      "role_id": 2,
      "end_time": "2018-06-23T21:30:00+00:00",
      "id": 61556,
      "break_duration": 3600
    },
    "61557": {
      "employee_id": 2636,
      "start_time": "2018-06-21T21:00:00+00:00",
      "role_id": 3,
      "end_time": "2018-06-22T05:30:00+00:00",
      "id": 61557,
      "break_duration": 3600
    },
    "61558": {
      "employee_id": 2639,
      "start_time": "2018-06-21T21:00:00+00:00",
      "role_id": 1,
      "end_time": "2018-06-22T05:30:00+00:00",
      "id": 61558,
      "break_duration": 3600
    },
    "61559": {
      "employee_id": 2635,
      "start_time": "2018-06-21T05:00:00+00:00",
      "role_id": 2,
      "end_time": "2018-06-21T13:30:00+00:00",
      "id": 61559,
      "break_duration": 3600
    },
    "61560": {
      "employee_id": 2641,
      "start_time": "2018-06-21T05:00:00+00:00",
      "role_id": 3,
      "end_time": "2018-06-21T13:30:00+00:00",
      "id": 61560,
      "break_duration": 3600
    },
    "61561": {
      "employee_id": 2646,
      "start_time": "2018-06-21T05:00:00+00:00",
      "role_id": 1,
      "end_time": "2018-06-21T13:30:00+00:00",
      "id": 61561,
      "break_duration": 3600
    },
    "61562": {
      "employee_id": 2634,
      "start_time": "2018-06-21T13:00:00+00:00",
      "role_id": 2,
      "end_time": "2018-06-21T21:30:00+00:00",
      "id": 61562,
      "break_duration": 3600
    },
    "61563": {
      "employee_id": 2643,
      "start_time": "2018-06-21T13:00:00+00:00",
      "role_id": 3,
      "end_time": "2018-06-21T21:30:00+00:00",
      "id": 61563,
      "break_duration": 3600
    },
    "61564": {
      "employee_id": 2642,
      "start_time": "2018-06-21T13:00:00+00:00",
      "role_id": 1,
      "end_time": "2018-06-21T21:30:00+00:00",
      "id": 61564,
      "break_duration": 3600
    },
    "61565": {
      "employee_id": 2636,
      "start_time": "2018-06-18T21:00:00+00:00",
      "role_id": 1,
      "end_time": "2018-06-19T05:30:00+00:00",
      "id": 61565,
      "break_duration": 3600
    },
    "61566": {
      "employee_id": 2639,
      "start_time": "2018-06-18T21:00:00+00:00",
      "role_id": 3,
      "end_time": "2018-06-19T05:30:00+00:00",
      "id": 61566,
      "break_duration": 3600
    },
    "61567": {
      "employee_id": 2640,
      "start_time": "2018-06-18T05:00:00+00:00",
      "role_id": 3,
      "end_time": "2018-06-18T13:30:00+00:00",
      "id": 61567,
      "break_duration": 3600
    },
    "61568": {
      "employee_id": 2643,
      "start_time": "2018-06-18T05:00:00+00:00",
      "role_id": 2,
      "end_time": "2018-06-18T13:30:00+00:00",
      "id": 61568,
      "break_duration": 3600
    },
    "61569": {
      "employee_id": 2647,
      "start_time": "2018-06-18T05:00:00+00:00",
      "role_id": 1,
      "end_time": "2018-06-18T13:30:00+00:00",
      "id": 61569,
      "break_duration": 3600
    },
    "61570": {
      "employee_id": 2644,
      "start_time": "2018-06-18T13:00:00+00:00",
      "role_id": 1,
      "end_time": "2018-06-18T21:30:00+00:00",
      "id": 61570,
      "break_duration": 3600
    },
    "61571": {
      "employee_id": 2646,
      "start_time": "2018-06-18T13:00:00+00:00",
      "role_id": 2,
      "end_time": "2018-06-18T21:30:00+00:00",
      "id": 61571,
      "break_duration": 3600
    },
    "61572": {
      "employee_id": 2645,
      "start_time": "2018-06-18T13:00:00+00:00",
      "role_id": 3,
      "end_time": "2018-06-18T21:30:00+00:00",
      "id": 61572,
      "break_duration": 3600
    },
    "61573": {
      "employee_id": 2639,
      "start_time": "2018-06-19T21:00:00+00:00",
      "role_id": 1,
      "end_time": "2018-06-20T05:30:00+00:00",
      "id": 61573,
      "break_duration": 3600
    },
    "61574": {
      "employee_id": 2636,
      "start_time": "2018-06-19T21:00:00+00:00",
      "role_id": 3,
      "end_time": "2018-06-20T05:30:00+00:00",
      "id": 61574,
      "break_duration": 3600
    },
    "61575": {
      "employee_id": 2635,
      "start_time": "2018-06-19T05:00:00+00:00",
      "role_id": 3,
      "end_time": "2018-06-19T13:30:00+00:00",
      "id": 61575,
      "break_duration": 3600
    },
    "61576": {
      "employee_id": 2643,
      "start_time": "2018-06-19T05:00:00+00:00",
      "role_id": 2,
      "end_time": "2018-06-19T13:30:00+00:00",
      "id": 61576,
      "break_duration": 3600
    },
    "61577": {
      "employee_id": 2647,
      "start_time": "2018-06-19T05:00:00+00:00",
      "role_id": 1,
      "end_time": "2018-06-19T13:30:00+00:00",
      "id": 61577,
      "break_duration": 3600
    },
    "61578": {
      "employee_id": 2640,
      "start_time": "2018-06-19T13:00:00+00:00",
      "role_id": 1,
      "end_time": "2018-06-19T21:30:00+00:00",
      "id": 61578,
      "break_duration": 3600
    },
    "61579": {
      "employee_id": 2644,
      "start_time": "2018-06-19T13:00:00+00:00",
      "role_id": 3,
      "end_time": "2018-06-19T21:30:00+00:00",
      "id": 61579,
      "break_duration": 3600
    },
    "61580": {
      "employee_id": 2645,
      "start_time": "2018-06-19T13:00:00+00:00",
      "role_id": 2,
      "end_time": "2018-06-19T21:30:00+00:00",
      "id": 61580,
      "break_duration": 3600
    },
    "61581": {
      "employee_id": 2640,
      "start_time": "2018-06-24T21:00:00+00:00",
      "role_id": 1,
      "end_time": "2018-06-25T05:30:00+00:00",
      "id": 61581,
      "break_duration": 3600
    },
    "61582": {
      "employee_id": 2645,
      "start_time": "2018-06-24T21:00:00+00:00",
      "role_id": 3,
      "end_time": "2018-06-25T05:30:00+00:00",
      "id": 61582,
      "break_duration": 3600
    },
    "61583": {
      "employee_id": 2641,
      "start_time": "2018-06-24T05:00:00+00:00",
      "role_id": 3,
      "end_time": "2018-06-24T13:30:00+00:00",
      "id": 61583,
      "break_duration": 3600
    },
    "61584": {
      "employee_id": 2647,
      "start_time": "2018-06-24T05:00:00+00:00",
      "role_id": 2,
      "end_time": "2018-06-24T13:30:00+00:00",
      "id": 61584,
      "break_duration": 3600
    },
    "61585": {
      "employee_id": 2644,
      "start_time": "2018-06-24T05:00:00+00:00",
      "role_id": 1,
      "end_time": "2018-06-24T13:30:00+00:00",
      "id": 61585,
      "break_duration": 3600
    },
    "61586": {
      "employee_id": 2634,
      "start_time": "2018-06-24T13:00:00+00:00",
      "role_id": 3,
      "end_time": "2018-06-24T21:30:00+00:00",
      "id": 61586,
      "break_duration": 3600
    },
    "61587": {
      "employee_id": 2637,
      "start_time": "2018-06-24T13:00:00+00:00",
      "role_id": 2,
      "end_time": "2018-06-24T21:30:00+00:00",
      "id": 61587,
      "break_duration": 3600
    },
    "61588": {
      "employee_id": 2646,
      "start_time": "2018-06-24T13:00:00+00:00",
      "role_id": 1,
      "end_time": "2018-06-24T21:30:00+00:00",
      "id": 61588,
      "break_duration": 3600
    },
    "61589": {
      "employee_id": 2645,
      "start_time": "2018-06-22T21:00:00+00:00",
      "role_id": 1,
      "end_time": "2018-06-23T05:30:00+00:00",
      "id": 61589,
      "break_duration": 3600
    },
    "61590": {
      "employee_id": 2641,
      "start_time": "2018-06-22T21:00:00+00:00",
      "role_id": 3,
      "end_time": "2018-06-23T05:30:00+00:00",
      "id": 61590,
      "break_duration": 3600
    },
    "61591": {
      "employee_id": 2635,
      "start_time": "2018-06-22T05:00:00+00:00",
      "role_id": 3,
      "end_time": "2018-06-22T13:30:00+00:00",
      "id": 61591,
      "break_duration": 3600
    },
    "61592": {
      "employee_id": 2646,
      "start_time": "2018-06-22T05:00:00+00:00",
      "role_id": 1,
      "end_time": "2018-06-22T13:30:00+00:00",
      "id": 61592,
      "break_duration": 3600
    },
    "61593": {
      "employee_id": 2637,
      "start_time": "2018-06-22T05:00:00+00:00",
      "role_id": 2,
      "end_time": "2018-06-22T13:30:00+00:00",
      "id": 61593,
      "break_duration": 3600
    },
    "61594": {
      "employee_id": 2642,
      "start_time": "2018-06-22T13:00:00+00:00",
      "role_id": 1,
      "end_time": "2018-06-22T21:30:00+00:00",
      "id": 61594,
      "break_duration": 3600
    },
    "61595": {
      "employee_id": 2643,
      "start_time": "2018-06-22T13:00:00+00:00",
      "role_id": 3,
      "end_time": "2018-06-22T21:30:00+00:00",
      "id": 61595,
      "break_duration": 3600
    },
    "61596": {
      "employee_id": 2634,
      "start_time": "2018-06-22T13:00:00+00:00",
      "role_id": 2,
      "end_time": "2018-06-22T21:30:00+00:00",
      "id": 61596,
      "break_duration": 3600
    },
    "61597": {
      "employee_id": 2639,
      "start_time": "2018-06-20T21:00:00+00:00",
      "role_id": 3,
      "end_time": "2018-06-21T05:30:00+00:00",
      "id": 61597,
      "break_duration": 3600
    },
    "61598": {
      "employee_id": 2636,
      "start_time": "2018-06-20T21:00:00+00:00",
      "role_id": 1,
      "end_time": "2018-06-21T05:30:00+00:00",
      "id": 61598,
      "break_duration": 3600
    },
    "61599": {
      "employee_id": 2640,
      "start_time": "2018-06-20T05:00:00+00:00",
      "role_id": 3,
      "end_time": "2018-06-20T13:30:00+00:00",
      "id": 61599,
      "break_duration": 3600
    },
    "61600": {
      "employee_id": 2642,
      "start_time": "2018-06-20T05:00:00+00:00",
      "role_id": 1,
      "end_time": "2018-06-20T13:30:00+00:00",
      "id": 61600,
      "break_duration": 3600
    },
    "61601": {
      "employee_id": 2647,
      "start_time": "2018-06-20T05:00:00+00:00",
      "role_id": 2,
      "end_time": "2018-06-20T13:30:00+00:00",
      "id": 61601,
      "break_duration": 3600
    },
    "61602": {
      "employee_id": 2635,
      "start_time": "2018-06-20T13:00:00+00:00",
      "role_id": 1,
      "end_time": "2018-06-20T21:30:00+00:00",
      "id": 61602,
      "break_duration": 3600
    },
    "61603": {
      "employee_id": 2643,
      "start_time": "2018-06-20T13:00:00+00:00",
      "role_id": 3,
      "end_time": "2018-06-20T21:30:00+00:00",
      "id": 61603,
      "break_duration": 3600
    },
    "61604": {
      "employee_id": 2634,
      "start_time": "2018-06-20T13:00:00+00:00",
      "role_id": 2,
      "end_time": "2018-06-20T21:30:00+00:00",
      "id": 61604,
      "break_duration": 3600
    }
  }
}
